# Blender v2.71 (sub 0) OBJ File: 'intro.blend'
# www.blender.org
o BezierCurve_Mesh
v -0.248905 8.987279 1.413815
v -0.352003 9.235425 1.394442
v -0.248905 9.483572 1.375070
v -0.000003 9.586357 1.367045
v 0.248898 9.483572 1.375070
v 0.351997 9.235426 1.394442
v 0.248899 8.987279 1.413815
v -0.000003 8.884493 1.421839
v -0.248904 8.608963 -1.717666
v -0.352003 8.850229 -1.778843
v -0.248904 9.091496 -1.840020
v -0.000003 9.191432 -1.865361
v 0.248899 9.091496 -1.840020
v 0.351998 8.850230 -1.778843
v 0.248899 8.608964 -1.717666
v -0.000002 8.509027 -1.692326
v -0.248903 8.142285 -2.998236
v -0.352002 8.289948 -3.198605
v -0.248903 8.437613 -3.398973
v -0.000002 8.498776 -3.481968
v 0.248900 8.437613 -3.398973
v 0.351998 8.289949 -3.198604
v 0.248900 8.142286 -2.998236
v -0.000002 8.081121 -2.915241
v -0.248903 7.539325 -3.022098
v -0.352001 7.468094 -3.260590
v -0.248902 7.396863 -3.499081
v -0.000001 7.367359 -3.597867
v 0.248901 7.396864 -3.499081
v 0.351999 7.468094 -3.260590
v 0.248901 7.539325 -3.022098
v -0.000001 7.568830 -2.923312
v -0.248902 6.458162 -2.169872
v -0.352000 6.298178 -2.360547
v -0.248902 6.138193 -2.551223
v 0.000000 6.071926 -2.630203
v 0.248902 6.138194 -2.551223
v 0.352000 6.298178 -2.360548
v 0.248901 6.458162 -2.169872
v -0.000000 6.524430 -2.090892
v -0.248901 4.853743 -0.703591
v -0.351999 4.693712 -0.894227
v -0.248901 4.533681 -1.084864
v 0.000001 4.467394 -1.163828
v 0.248902 4.533681 -1.084864
v 0.352001 4.693712 -0.894227
v 0.248902 4.853743 -0.703591
v 0.000000 4.920030 -0.624627
v -0.248901 2.701790 0.952641
v -0.351999 2.568208 0.742622
v -0.248900 2.434626 0.532603
v 0.000001 2.379295 0.445610
v 0.248903 2.434626 0.532603
v 0.352001 2.568208 0.742622
v 0.248903 2.701790 0.952641
v 0.000001 2.757122 1.039633
v -0.248900 -0.091687 2.392169
v -0.351999 -0.164821 2.154254
v -0.248900 -0.237955 1.916339
v 0.000002 -0.268248 1.817792
v 0.248903 -0.237955 1.916340
v 0.352002 -0.164820 2.154254
v 0.248903 -0.091687 2.392169
v 0.000001 -0.061394 2.490716
v -0.248900 -1.577160 2.561190
v -0.351998 -1.524947 2.317826
v -0.248900 -1.472733 2.074463
v 0.000002 -1.451106 1.973658
v 0.248904 -1.472733 2.074463
v 0.352002 -1.524946 2.317827
v 0.248903 -1.577160 2.561190
v 0.000002 -1.598787 2.661994
v -0.248899 -2.648866 1.922915
v -0.351998 -2.473804 1.745983
v -0.248899 -2.298740 1.569050
v 0.000002 -2.226227 1.495763
v 0.248904 -2.298741 1.569051
v 0.352002 -2.473803 1.745983
v 0.248904 -2.648867 1.922915
v 0.000002 -2.721380 1.996203
v -0.248899 -3.355988 0.788286
v -0.351997 -3.132269 0.679190
v -0.248899 -2.908550 0.570094
v 0.000003 -2.815883 0.524905
v 0.248904 -2.908551 0.570094
v 0.352003 -3.132269 0.679190
v 0.248904 -3.355988 0.788286
v 0.000003 -3.448656 0.833475
v -0.248899 -3.856165 -0.559906
v -0.351997 -3.621222 -0.642085
v -0.248899 -3.386278 -0.724264
v 0.000003 -3.288961 -0.758304
v 0.248905 -3.386279 -0.724264
v 0.352003 -3.621222 -0.642085
v 0.248905 -3.856166 -0.559906
v 0.000003 -3.953483 -0.525866
v -0.248898 -4.293075 -1.886033
v -0.351997 -4.061540 -1.977375
v -0.248898 -3.830004 -2.068717
v 0.000003 -3.734100 -2.106552
v 0.248905 -3.830005 -2.068717
v 0.352004 -4.061540 -1.977375
v 0.248905 -4.293076 -1.886033
v 0.000003 -4.388980 -1.848198
v -0.248898 -4.774804 -2.939004
v -0.351996 -4.574101 -3.086213
v -0.248898 -4.373398 -3.233422
v 0.000004 -4.290265 -3.294397
v 0.248905 -4.373398 -3.233422
v 0.352004 -4.574101 -3.086213
v 0.248905 -4.774804 -2.939004
v 0.000004 -4.857937 -2.878028
v -0.248898 -5.398922 -3.509601
v -0.351996 -5.279780 -3.728135
v -0.248897 -5.160637 -3.946669
v 0.000004 -5.111288 -4.037189
v 0.248906 -5.160637 -3.946669
v 0.352004 -5.279780 -3.728134
v 0.248906 -5.398922 -3.509601
v 0.000004 -5.448272 -3.419081
v -0.248897 -6.816321 -3.883020
v -0.351995 -6.792301 -4.130760
v -0.248897 -6.768281 -4.378500
v 0.000005 -6.758332 -4.481117
v 0.248906 -6.768281 -4.378500
v 0.352005 -6.792301 -4.130760
v 0.248906 -6.816321 -3.883020
v 0.000004 -6.826270 -3.780403
v -0.248897 -7.832335 -3.818265
v -0.351995 -7.905265 -4.056243
v -0.248897 -7.978196 -4.294220
v 0.000005 -8.008404 -4.392794
v 0.248907 -7.978196 -4.294220
v 0.352005 -7.905265 -4.056242
v 0.248906 -7.832335 -3.818266
v 0.000005 -7.802126 -3.719692
v -0.248896 -8.507950 -3.423880
v -0.351995 -8.677896 -3.605732
v -0.248896 -8.847843 -3.787584
v 0.000006 -8.918236 -3.862910
v 0.248907 -8.847843 -3.787584
v 0.352005 -8.677896 -3.605732
v 0.248907 -8.507950 -3.423880
v 0.000005 -8.437555 -3.348554
v -0.248896 -8.944590 -2.773580
v -0.351994 -9.169415 -2.880375
v -0.248896 -9.394241 -2.987171
v 0.000006 -9.487368 -3.031407
v 0.248908 -9.394241 -2.987171
v 0.352006 -9.169415 -2.880376
v 0.248907 -8.944590 -2.773581
v 0.000005 -8.851463 -2.729344
v -0.248896 -9.195129 -1.931751
v -0.351994 -9.439043 -1.981323
v -0.248895 -9.682959 -2.030896
v 0.000006 -9.783991 -2.051430
v 0.248908 -9.682959 -2.030897
v 0.352006 -9.439043 -1.981324
v 0.248907 -9.195127 -1.931751
v 0.000006 -9.094095 -1.911217
v -0.248896 -9.297503 -0.995622
v -0.351994 -9.546003 -1.009724
v -0.248895 -9.794506 -1.023825
v 0.000007 -9.897438 -1.029666
v 0.248908 -9.794506 -1.023825
v 0.352006 -9.546003 -1.009724
v 0.248908 -9.297503 -0.995623
v 0.000006 -9.194569 -0.989782
v -0.248895 -9.300739 -0.074639
v -0.351994 -9.549515 -0.066725
v -0.248895 -9.798290 -0.058812
v 0.000007 -9.901337 -0.055534
v 0.248908 -9.798290 -0.058812
v 0.352007 -9.549515 -0.066726
v 0.248908 -9.300739 -0.074639
v 0.000006 -9.197693 -0.077917
v 0.248908 -9.682959 -2.030897
v 0.248908 -9.794506 -1.023825
v -0.000001 7.568830 -2.923312
v -0.000001 7.568830 -2.923312
v -0.000001 7.568830 -2.923312
v -0.000000 6.524430 -2.090892
v 0.248903 -0.091687 2.392169
v 0.248903 -1.577160 2.561190
v 0.248903 -1.577160 2.561190
v 0.352003 -3.132269 0.679190
v 0.352003 -3.621222 -0.642085
v 0.248906 -5.398922 -3.509601
v 0.248906 -6.816321 -3.883020
v 0.352004 -4.061540 -1.977375
v 0.000006 -9.487368 -3.031407
v 0.000006 -9.783991 -2.051430
v 0.248899 8.608964 -1.717666
v 0.248900 8.142286 -2.998236
v 0.248900 8.142286 -2.998236
v -0.000002 8.498776 -3.481968
v -0.000002 8.498776 -3.481968
v -0.000002 8.498776 -3.481968
v 0.248900 8.437613 -3.398973
v 0.248900 8.437613 -3.398973
v -0.248900 -1.472733 2.074463
v -0.248900 -1.472733 2.074463
v 0.000002 -1.451106 1.973658
v 0.000002 -1.451106 1.973658
v 0.000002 -1.451106 1.973658
v -0.351999 2.568208 0.742622
v -0.351999 -0.164821 2.154254
v -0.352002 8.289948 -3.198605
v -0.352001 7.468094 -3.260590
v 0.000007 -9.897438 -1.029666
v 0.248901 7.539325 -3.022098
v 0.248901 7.539325 -3.022098
v 0.248901 6.458162 -2.169872
v 0.352002 -0.164820 2.154254
v 0.352002 -1.524946 2.317827
v -0.000002 8.081121 -2.915241
v -0.000002 8.081121 -2.915241
v -0.000002 8.081121 -2.915241
v 0.248905 -3.386279 -0.724264
v 0.248905 -3.830005 -2.068717
v -0.351997 -3.621222 -0.642085
v -0.351997 -4.061540 -1.977375
v -0.248896 -8.847843 -3.787584
v -0.248896 -9.394241 -2.987171
v 0.000005 -8.008404 -4.392794
v 0.000006 -8.918236 -3.862910
v 0.000002 -2.226227 1.495763
v 0.352006 -9.169415 -2.880376
v 0.352006 -9.439043 -1.981324
v -0.248901 2.701790 0.952641
v -0.248900 -0.091687 2.392169
v -0.248903 8.437613 -3.398973
v -0.248903 8.437613 -3.398973
v -0.248902 7.396863 -3.499081
v -0.248902 7.396863 -3.499081
v 0.248908 -9.297503 -0.995623
v 0.248908 -9.300739 -0.074639
v 0.351999 7.468094 -3.260590
v 0.352000 6.298178 -2.360548
v 0.248903 -0.237955 1.916340
v 0.248904 -1.472733 2.074463
v 0.248904 -1.472733 2.074463
v -0.248904 9.091496 -1.840020
v 0.000004 -5.448272 -3.419081
v 0.000004 -6.826270 -3.780403
v -0.248900 2.434626 0.532603
v -0.248900 -0.237955 1.916339
v -0.248903 8.142285 -2.998236
v -0.248903 8.142285 -2.998236
v -0.248903 7.539325 -3.022098
v -0.248903 7.539325 -3.022098
v -0.351998 -1.524947 2.317826
v 0.352001 2.568208 0.742622
v -0.000001 7.367359 -3.597867
v -0.000001 7.367359 -3.597867
v -0.000001 7.367359 -3.597867
v 0.000007 -9.901337 -0.055534
v -0.351994 -9.439043 -1.981323
v -0.351994 -9.546003 -1.009724
v 0.248901 7.396864 -3.499081
v 0.248901 7.396864 -3.499081
v 0.248902 6.138194 -2.551223
v 0.000003 -3.448656 0.833475
v 0.000003 -3.953483 -0.525866
v -0.248899 -2.298740 1.569050
v -0.248899 -2.908550 0.570094
v -0.248897 -6.816321 -3.883020
v -0.248897 -7.832335 -3.818265
v -0.000003 9.586357 1.367045
v -0.000003 9.191432 -1.865361
v 0.248905 -4.373398 -3.233422
v 0.248907 -8.847843 -3.787584
v 0.248908 -9.394241 -2.987171
v 0.000001 4.467394 -1.163828
v 0.000001 2.379295 0.445610
v -0.351995 -7.905265 -4.056243
v -0.351995 -8.677896 -3.605732
v 0.000005 -7.802126 -3.719692
v 0.000005 -8.437555 -3.348554
v 0.000000 6.071926 -2.630203
v -0.248899 -3.856165 -0.559906
v -0.248898 -4.293075 -1.886033
v 0.248899 9.091496 -1.840020
v -0.351994 -9.549515 -0.066725
v 0.248903 2.434626 0.532603
v -0.248896 -8.507950 -3.423880
v -0.248896 -8.944590 -2.773580
v 0.000002 -1.598787 2.661994
v 0.000002 -1.598787 2.661994
v 0.000002 -1.598787 2.661994
v 0.000005 -8.851463 -2.729344
v 0.000006 -9.094095 -1.911217
v 0.248902 4.533681 -1.084864
v 0.000004 -5.111288 -4.037189
v 0.000005 -6.758332 -4.481117
v -0.351998 -2.473804 1.745983
v -0.352003 9.235425 1.394442
v -0.352003 8.850229 -1.778843
v -0.248898 -3.830004 -2.068717
v -0.248898 -4.373398 -3.233422
v -0.248898 -4.774804 -2.939004
v 0.352001 4.693712 -0.894227
v 0.351998 8.289949 -3.198604
v 0.000002 -2.721380 1.996203
v 0.248904 -2.298741 1.569051
v 0.248904 -2.908551 0.570094
v -0.248896 -9.195129 -1.931751
v -0.248896 -9.297503 -0.995622
v -0.352000 6.298178 -2.360547
v 0.000003 -4.388980 -1.848198
v 0.000004 -4.857937 -2.878028
v -0.351994 -9.169415 -2.880375
v 0.352005 -7.905265 -4.056242
v 0.352005 -8.677896 -3.605732
v -0.248901 4.853743 -0.703591
v -0.248899 -2.648866 1.922915
v -0.248899 -3.355988 0.788286
v -0.248902 6.138193 -2.551223
v -0.248901 4.533681 -1.084864
v -0.248902 6.458162 -2.169872
v 0.248906 -7.832335 -3.818266
v 0.248907 -8.507950 -3.423880
v -0.248897 -5.160637 -3.946669
v 0.000006 -9.194569 -0.989782
v 0.352002 -2.473803 1.745983
v -0.351999 4.693712 -0.894227
v 0.352004 -5.279780 -3.728134
v 0.352005 -6.792301 -4.130760
v -0.248898 -5.398922 -3.509601
v -0.000003 8.884493 1.421839
v -0.000002 8.509027 -1.692326
v 0.000000 4.920030 -0.624627
v -0.351997 -3.132269 0.679190
v -0.351995 -6.792301 -4.130760
v 0.248907 -9.195127 -1.931751
v 0.248904 -2.648867 1.922915
v -0.351996 -4.574101 -3.086213
v -0.351996 -5.279780 -3.728135
v 0.352004 -4.574101 -3.086213
v -0.248899 -3.386278 -0.724264
v -0.248904 8.608963 -1.717666
v 0.248906 -5.160637 -3.946669
v 0.248905 -4.293076 -1.886033
v 0.248905 -4.774804 -2.939004
v 0.351997 9.235426 1.394442
v 0.351998 8.850230 -1.778843
v 0.000003 -3.734100 -2.106552
v 0.000004 -4.290265 -3.294397
v -0.248895 -9.682959 -2.030896
v -0.248895 -9.794506 -1.023825
v 0.248907 -7.978196 -4.294220
v 0.248899 8.987279 1.413815
v -0.248900 -1.577160 2.561190
v -0.248900 -1.577160 2.561190
v 0.248904 -3.355988 0.788286
v 0.248905 -3.856166 -0.559906
v 0.248907 -8.944590 -2.773581
v 0.248902 4.853743 -0.703591
v 0.000003 -2.815883 0.524905
v 0.000002 -0.268248 1.817792
v 0.248903 2.701790 0.952641
v 0.248898 9.483572 1.375070
v -0.248897 -6.768281 -4.378500
v 0.248908 -9.798290 -0.058812
v -0.248897 -7.978196 -4.294220
v 0.000001 2.757122 1.039633
v 0.000001 -0.061394 2.490716
v 0.248906 -6.768281 -4.378500
v -0.248905 9.483572 1.375070
v -0.248895 -9.798290 -0.058812
v -0.248895 -9.300739 -0.074639
v -0.248905 8.987279 1.413815
v 0.000003 -3.288961 -0.758304
v 0.000006 -9.197693 -0.077917
v 0.352006 -9.546003 -1.009724
v 0.352007 -9.549515 -0.066726
vt 4.718561 1.000000
vt 4.718561 0.875000
vt 5.162620 0.875000
vt 4.718561 0.125000
vt 4.718561 0.000000
vt 5.162620 0.000000
vt 4.718561 0.250000
vt 5.162620 0.125000
vt 4.718561 0.375000
vt 5.162620 0.250000
vt 5.162620 0.500000
vt 4.718561 0.500000
vt 5.162620 0.625000
vt 4.718561 0.625000
vt 5.162620 0.750000
vt 4.718561 0.750000
vt 4.274502 1.000000
vt 4.274502 0.875000
vt 4.274502 0.125000
vt 4.274502 0.000000
vt 4.274502 0.250000
vt 4.274502 0.375000
vt 4.274502 0.500000
vt 4.274502 0.625000
vt 4.274502 0.750000
vt 3.830443 1.000000
vt 3.830443 0.875000
vt 3.830443 0.125000
vt 3.830443 0.000000
vt 3.830443 0.250000
vt 3.830443 0.375000
vt 3.830443 0.500000
vt 3.830443 0.625000
vt 3.830443 0.750000
vt 3.386384 1.000000
vt 3.386384 0.875000
vt 3.386384 0.125000
vt 3.386384 0.000000
vt 3.386384 0.250000
vt 3.386384 0.375000
vt 3.386384 0.500000
vt 3.386384 0.625000
vt 3.386384 0.750000
vt 2.942325 1.000000
vt 2.942325 0.875000
vt 2.942325 0.125000
vt 2.942325 0.000000
vt 2.942325 0.250000
vt 2.942325 0.375000
vt 2.942325 0.500000
vt 2.942325 0.625000
vt 2.942325 0.750000
vt 2.498265 1.000000
vt 2.498265 0.875000
vt 2.498265 0.125000
vt 2.498265 0.000000
vt 2.498265 0.250000
vt 2.498265 0.375000
vt 2.498265 0.500000
vt 2.498265 0.625000
vt 2.498265 0.750000
vt 2.054206 1.000000
vt 2.054206 0.875000
vt 2.054206 0.125000
vt 2.054206 0.000000
vt 2.054206 0.250000
vt 2.054206 0.375000
vt 2.054206 0.500000
vt 2.054206 0.625000
vt 2.054206 0.750000
vt 1.610147 1.000000
vt 1.610147 0.875000
vt 1.610147 0.125000
vt 1.610147 0.000000
vt 1.610147 0.250000
vt 1.610147 0.375000
vt 1.610147 0.500000
vt 1.610147 0.625000
vt 1.610147 0.750000
vt 1.166088 1.000000
vt 1.166088 0.875000
vt 1.166088 0.125000
vt 1.166088 0.000000
vt 1.166088 0.250000
vt 1.166088 0.375000
vt 1.166088 0.500000
vt 1.166088 0.625000
vt 1.166088 0.750000
vt 0.722030 1.000000
vt 0.722030 0.875000
vt 0.722030 0.125000
vt 0.722030 0.000000
vt 0.722030 0.250000
vt 0.722030 0.375000
vt 0.722030 0.500000
vt 0.722030 0.625000
vt 0.722030 0.750000
vt 0.277970 1.000000
vt 0.277970 0.875000
vt 0.277970 0.125000
vt 0.277970 0.000000
vt 0.277970 0.250000
vt 0.277970 0.375000
vt 0.277970 0.500000
vt 0.277970 0.625000
vt 0.277970 0.750000
vt -0.166089 1.000000
vt -0.166089 0.875000
vt -0.166089 0.125000
vt -0.166089 0.000000
vt -0.166089 0.250000
vt -0.166089 0.375000
vt -0.166089 0.500000
vt -0.166089 0.625000
vt -0.166089 0.750000
vt -0.610148 1.000000
vt -0.610148 0.875000
vt -0.610148 0.125000
vt -0.610148 0.000000
vt -0.610148 0.250000
vt -0.610148 0.375000
vt -0.610148 0.500000
vt -0.610148 0.625000
vt -0.610148 0.750000
vt -1.054207 1.000000
vt -1.054207 0.875000
vt -1.054207 0.125000
vt -1.054207 0.000000
vt -1.054207 0.250000
vt -1.054207 0.375000
vt -1.054207 0.500000
vt -1.054207 0.625000
vt -1.054207 0.750000
vt -1.498266 1.000000
vt -1.498266 0.875000
vt -1.498266 0.125000
vt -1.498266 0.000000
vt -1.498266 0.250000
vt -1.498266 0.375000
vt -1.498266 0.500000
vt -1.498266 0.625000
vt -1.498266 0.750000
vt -1.942325 1.000000
vt -1.942325 0.875000
vt -1.942325 0.125000
vt -1.942325 0.000000
vt -1.942325 0.250000
vt -1.942325 0.375000
vt -1.942325 0.500000
vt -1.942325 0.625000
vt -1.942325 0.750000
vt -2.386384 1.000000
vt -2.386384 0.875000
vt -2.386384 0.125000
vt -2.386384 0.000000
vt -2.386384 0.250000
vt -2.386384 0.375000
vt -2.386384 0.500000
vt -2.386384 0.625000
vt -2.386384 0.750000
vt -2.830443 1.000000
vt -2.830443 0.875000
vt -2.830443 0.125000
vt -2.830443 0.000000
vt -2.830443 0.250000
vt -2.830443 0.375000
vt -2.830443 0.500000
vt -2.830443 0.625000
vt -2.830443 0.750000
vt -3.274502 1.000000
vt -3.274502 0.875000
vt -3.274502 0.125000
vt -3.274502 0.000000
vt -3.274502 0.250000
vt -3.274502 0.375000
vt -3.274502 0.500000
vt -3.274502 0.625000
vt -3.274502 0.750000
vt -3.718561 1.000000
vt -3.718561 0.875000
vt -3.718561 0.125000
vt -3.718561 0.000000
vt -3.718561 0.250000
vt -3.718561 0.375000
vt -3.718561 0.500000
vt -3.718561 0.625000
vt -3.718561 0.750000
vt -4.162620 1.000000
vt -4.162620 0.875000
vt -4.162620 0.125000
vt -4.162620 0.000000
vt -4.162620 0.250000
vt -4.162620 0.375000
vt -4.162620 0.500000
vt -4.162620 0.625000
vt -4.162620 0.750000
vt 5.162620 1.000000
vt 5.162620 0.375000
vn -0.382700 -0.898400 0.215200
vn -0.379200 -0.900200 0.214100
vn -0.382300 -0.917400 0.110800
vn -0.923900 -0.370900 0.094000
vn -0.922700 -0.373800 0.094100
vn -0.923700 -0.380300 0.046200
vn -0.923900 0.369900 -0.097700
vn -0.922900 0.372100 -0.098600
vn -0.923700 0.380300 -0.046400
vn -0.382700 0.892200 -0.239800
vn -0.380600 0.892900 -0.240600
vn -0.382200 0.917200 -0.112100
vn 0.382200 0.917200 -0.112100
vn 0.380600 0.892900 -0.240600
vn 0.382700 0.892200 -0.239800
vn 0.923700 0.380300 -0.046400
vn 0.922900 0.372100 -0.098600
vn 0.923900 0.369900 -0.097700
vn 0.923700 -0.380300 0.046200
vn 0.922700 -0.373800 0.094100
vn 0.923900 -0.370900 0.094000
vn 0.382300 -0.917400 0.110800
vn 0.379200 -0.900200 0.214100
vn 0.382700 -0.898400 0.215200
vn -0.332000 -0.889800 0.313200
vn -0.323700 -0.893100 0.312500
vn -0.927500 -0.221500 0.301000
vn -0.923900 -0.224700 0.309800
vn -0.926400 0.223600 -0.302900
vn -0.923900 0.227000 -0.308100
vn -0.339900 0.866900 -0.364500
vn -0.335000 0.868900 -0.364400
vn 0.335000 0.868900 -0.364400
vn 0.339900 0.866900 -0.364500
vn 0.923900 0.227000 -0.308100
vn 0.926400 0.223600 -0.302900
vn 0.923900 -0.224700 0.309800
vn 0.927500 -0.221500 0.301000
vn 0.323700 -0.893100 0.312500
vn 0.332000 -0.889800 0.313200
vn -0.334300 -0.022000 0.942200
vn -0.364900 -0.036800 0.930300
vn -0.353400 -0.031200 0.934900
vn -0.924500 0.110600 0.364700
vn -0.922400 0.114600 0.368900
vn -0.924500 -0.105700 -0.366300
vn -0.923000 -0.105600 -0.370000
vn -0.338800 0.091100 -0.936400
vn -0.357500 0.095200 -0.929100
vn -0.354400 0.094500 -0.930300
vn 0.354400 0.094500 -0.930300
vn 0.357500 0.095200 -0.929100
vn 0.338800 0.091100 -0.936400
vn 0.923000 -0.105600 -0.370000
vn 0.924500 -0.105700 -0.366300
vn 0.922400 0.114600 0.368900
vn 0.924500 0.110600 0.364700
vn 0.353400 -0.031200 0.934900
vn 0.364900 -0.036800 0.930300
vn 0.334300 -0.022000 0.942200
vn -0.361900 0.580500 0.729400
vn -0.382700 0.598000 0.704300
vn -0.381200 0.598600 0.704500
vn -0.923900 0.246000 0.293200
vn -0.923300 0.247000 0.294000
vn -0.923900 -0.244500 -0.294400
vn -0.923400 -0.245300 -0.295200
vn -0.364300 -0.559900 -0.744200
vn -0.382700 -0.588900 -0.711900
vn -0.381600 -0.589200 -0.712200
vn 0.381600 -0.589200 -0.712200
vn 0.382700 -0.588900 -0.711900
vn 0.364300 -0.559900 -0.744200
vn 0.923400 -0.245300 -0.295200
vn 0.923900 -0.244500 -0.294400
vn 0.923300 0.247000 0.294000
vn 0.923900 0.246000 0.293200
vn 0.381200 0.598700 0.704500
vn 0.382700 0.598000 0.704300
vn 0.361900 0.580500 0.729400
vn -0.382700 0.593900 0.707700
vn -0.923900 0.246000 0.293100
vn -0.923900 -0.246100 -0.293100
vn -0.923900 -0.246000 -0.293100
vn -0.382700 -0.594100 -0.707500
vn 0.382700 -0.594100 -0.707500
vn 0.923900 -0.246000 -0.293100
vn 0.923900 -0.246100 -0.293100
vn 0.923900 0.246000 0.293100
vn 0.382700 0.593900 0.707700
vn -0.382600 0.495200 0.780000
vn -0.382700 0.495200 0.779900
vn -0.923800 0.205300 0.323100
vn -0.923900 0.205200 0.323000
vn -0.923800 -0.205500 -0.323000
vn -0.923900 -0.205400 -0.322800
vn -0.382600 -0.496400 -0.779200
vn -0.382700 -0.496400 -0.779200
vn 0.382700 -0.496400 -0.779200
vn 0.382600 -0.496400 -0.779200
vn 0.923900 -0.205400 -0.322800
vn 0.923800 -0.205500 -0.323000
vn 0.923900 0.205200 0.323000
vn 0.923800 0.205300 0.323100
vn 0.382700 0.495200 0.779900
vn 0.382600 0.495200 0.780000
vn -0.382100 0.267200 0.884700
vn -0.382800 0.267300 0.884300
vn -0.923600 0.111400 0.366800
vn -0.923900 0.111300 0.366000
vn -0.923500 -0.113000 -0.366400
vn -0.923900 -0.112600 -0.365600
vn -0.381700 -0.276000 -0.882100
vn -0.382800 -0.275300 -0.881900
vn 0.382800 -0.275300 -0.881900
vn 0.381700 -0.276000 -0.882100
vn 0.923900 -0.112600 -0.365600
vn 0.923500 -0.113000 -0.366400
vn 0.923900 0.111300 0.366000
vn 0.923600 0.111400 0.366800
vn 0.382800 0.267300 0.884300
vn 0.382100 0.267200 0.884700
vn -0.365400 0.105200 0.924900
vn -0.366800 0.104900 0.924400
vn -0.923900 -0.080300 0.374200
vn -0.924500 -0.080000 0.372700
vn -0.923900 0.080100 -0.374200
vn -0.924600 0.079700 -0.372400
vn -0.363500 -0.121700 -0.923600
vn -0.365600 -0.121100 -0.922800
vn 0.365600 -0.121100 -0.922800
vn 0.363500 -0.121700 -0.923600
vn 0.924600 0.079700 -0.372400
vn 0.923900 0.080100 -0.374200
vn 0.924500 -0.080000 0.372700
vn 0.923900 -0.080300 0.374200
vn 0.366800 0.104900 0.924400
vn 0.365400 0.105200 0.924900
vn -0.382200 -0.646000 0.660700
vn -0.383100 -0.646100 0.660200
vn -0.366400 -0.475900 0.799500
vn -0.923700 -0.268800 0.273200
vn -0.924100 -0.268100 0.272400
vn -0.923600 0.270600 -0.271600
vn -0.924100 0.269200 -0.271100
vn -0.381800 0.655100 -0.652000
vn -0.383300 0.653800 -0.652400
vn -0.365600 0.488000 -0.792600
vn 0.365600 0.488000 -0.792600
vn 0.383300 0.653800 -0.652400
vn 0.381800 0.655100 -0.652000
vn 0.924100 0.269200 -0.271100
vn 0.923600 0.270600 -0.271600
vn 0.924100 -0.268100 0.272400
vn 0.923700 -0.268800 0.273200
vn 0.366400 -0.475900 0.799500
vn 0.383100 -0.646100 0.660200
vn 0.382200 -0.646000 0.660700
vn -0.382200 -0.829200 0.407800
vn -0.382800 -0.829000 0.407700
vn -0.923700 -0.344000 0.168600
vn -0.923900 -0.343500 0.168400
vn -0.923700 0.344600 -0.167700
vn -0.923900 0.343900 -0.167600
vn -0.382100 0.832000 -0.402300
vn -0.382800 0.831600 -0.402400
vn 0.382800 0.831600 -0.402400
vn 0.382100 0.832000 -0.402300
vn 0.923900 0.343900 -0.167600
vn 0.923700 0.344600 -0.167700
vn 0.923900 -0.343500 0.168400
vn 0.923700 -0.344000 0.168600
vn 0.382800 -0.829000 0.407700
vn 0.382200 -0.829200 0.407800
vn -0.382600 -0.872000 0.305400
vn -0.382700 -0.871900 0.305400
vn -0.923800 -0.361300 0.126500
vn -0.923900 -0.361200 0.126500
vn -0.923800 0.361300 -0.126400
vn -0.923900 0.361200 -0.126400
vn -0.382600 0.872200 -0.304800
vn -0.382700 0.872200 -0.304800
vn 0.382700 0.872200 -0.304800
vn 0.382600 0.872200 -0.304800
vn 0.923900 0.361200 -0.126400
vn 0.923800 0.361300 -0.126400
vn 0.923900 -0.361200 0.126500
vn 0.923800 -0.361300 0.126500
vn 0.382700 -0.871900 0.305400
vn 0.382600 -0.872000 0.305400
vn -0.382700 -0.860100 0.337200
vn -0.382200 -0.860400 0.337100
vn -0.923900 -0.356000 0.140400
vn -0.923700 -0.356400 0.140500
vn -0.923900 0.355700 -0.141000
vn -0.923700 0.356100 -0.141200
vn -0.382700 0.858500 -0.341200
vn -0.382300 0.858700 -0.341300
vn 0.382300 0.858700 -0.341300
vn 0.382700 0.858500 -0.341200
vn 0.923700 0.356100 -0.141200
vn 0.923900 0.355700 -0.141000
vn 0.923700 -0.356400 0.140500
vn 0.923900 -0.356000 0.140400
vn 0.382200 -0.860400 0.337100
vn 0.382700 -0.860100 0.337200
vn -0.383200 -0.746900 0.543500
vn -0.382400 -0.747500 0.543200
vn -0.924100 -0.308500 0.225600
vn -0.923800 -0.309300 0.225700
vn -0.924100 0.308000 -0.226400
vn -0.923800 0.308500 -0.226800
vn -0.383100 0.743200 -0.548600
vn -0.382500 0.743300 -0.548900
vn 0.382500 0.743300 -0.548900
vn 0.383100 0.743200 -0.548600
vn 0.923800 0.308500 -0.226800
vn 0.924100 0.308000 -0.226400
vn 0.923800 -0.309300 0.225700
vn 0.924100 -0.308500 0.225600
vn 0.382400 -0.747500 0.543200
vn 0.383200 -0.746900 0.543500
vn -0.383400 -0.442100 0.810900
vn -0.382700 -0.442200 0.811200
vn -0.924100 -0.182800 0.335500
vn -0.923900 -0.183200 0.336000
vn -0.924100 0.182900 -0.335500
vn -0.923900 0.183200 -0.336000
vn -0.383100 0.442200 -0.810900
vn -0.382700 0.442300 -0.811100
vn 0.382700 0.442300 -0.811100
vn 0.383100 0.442200 -0.810900
vn 0.923900 0.183200 -0.336000
vn 0.924100 0.182900 -0.335500
vn 0.923900 -0.183200 0.336000
vn 0.924100 -0.182800 0.335500
vn 0.382700 -0.442200 0.811200
vn 0.383400 -0.442100 0.810900
vn -0.382700 -0.089400 0.919500
vn -0.382000 -0.089500 0.919800
vn -0.923900 -0.036900 0.380900
vn -0.923600 -0.037000 0.381500
vn -0.923900 0.036900 -0.380900
vn -0.923700 0.036900 -0.381400
vn -0.382700 0.088900 -0.919600
vn -0.382200 0.088900 -0.919800
vn 0.382200 0.088900 -0.919800
vn 0.382700 0.088900 -0.919600
vn 0.923700 0.036900 -0.381400
vn 0.923900 0.036900 -0.380900
vn 0.923600 -0.037000 0.381500
vn 0.923900 -0.036900 0.380900
vn 0.382000 -0.089500 0.919800
vn 0.382700 -0.089400 0.919500
vn -0.383200 0.269100 0.883600
vn -0.382700 0.268800 0.883900
vn -0.924100 0.111600 0.365600
vn -0.923900 0.111500 0.366100
vn -0.924000 -0.112100 -0.365500
vn -0.923900 -0.112100 -0.365900
vn -0.383000 -0.271700 -0.882900
vn -0.382700 -0.271800 -0.883000
vn 0.382700 -0.271800 -0.883000
vn 0.383000 -0.271700 -0.882900
vn 0.923900 -0.112100 -0.365900
vn 0.924000 -0.112100 -0.365500
vn 0.923900 0.111500 0.366100
vn 0.924100 0.111600 0.365600
vn 0.382700 0.268800 0.883900
vn 0.383200 0.269100 0.883600
vn -0.383200 0.632700 0.672900
vn -0.382600 0.633300 0.672700
vn -0.924100 0.261300 0.278900
vn -0.923900 0.262000 0.279000
vn -0.924000 -0.260900 -0.279400
vn -0.923900 -0.261300 -0.279700
vn -0.383000 -0.629400 -0.676200
vn -0.382600 -0.629400 -0.676300
vn 0.382600 -0.629400 -0.676300
vn 0.383000 -0.629400 -0.676200
vn 0.923900 -0.261300 -0.279700
vn 0.924000 -0.260900 -0.279400
vn 0.923900 0.262000 0.279000
vn 0.924100 0.261300 0.278900
vn 0.382600 0.633300 0.672700
vn 0.383300 0.632700 0.672900
vn -0.382900 0.835800 0.393500
vn -0.382100 0.836300 0.393200
vn -0.924000 0.345600 0.163800
vn -0.923700 0.346300 0.163900
vn -0.924000 -0.345200 -0.164700
vn -0.923700 -0.345700 -0.164900
vn -0.382900 -0.833200 -0.399000
vn -0.382400 -0.833300 -0.399200
vn 0.382400 -0.833300 -0.399200
vn 0.382900 -0.833200 -0.399000
vn 0.923700 -0.345700 -0.164900
vn 0.924000 -0.345200 -0.164700
vn 0.923700 0.346300 0.163900
vn 0.924000 0.345600 0.163800
vn 0.382100 0.836300 0.393100
vn 0.382900 0.835800 0.393500
vn -0.382800 0.905600 0.182600
vn -0.382400 0.905800 0.182500
vn -0.923900 0.375000 0.076100
vn -0.923800 0.375300 0.076100
vn -0.923900 -0.374900 -0.076600
vn -0.923800 -0.375100 -0.076600
vn -0.382800 -0.905000 -0.185400
vn -0.382500 -0.905200 -0.185500
vn 0.382500 -0.905200 -0.185500
vn 0.382800 -0.905000 -0.185400
vn 0.923800 -0.375100 -0.076600
vn 0.923900 -0.374900 -0.076600
vn 0.923800 0.375300 0.076100
vn 0.923900 0.375000 0.076100
vn 0.382400 0.905800 0.182500
vn 0.382800 0.905600 0.182600
vn -0.382700 0.922400 0.051900
vn -0.382600 0.922500 0.051800
vn -0.923900 0.382000 0.021600
vn -0.923800 0.382200 0.021600
vn -0.923900 -0.382000 -0.021800
vn -0.923800 -0.382100 -0.021800
vn -0.382700 -0.922400 -0.052900
vn -0.382600 -0.922400 -0.052900
vn 0.382600 -0.922400 -0.052900
vn 0.382700 -0.922400 -0.052900
vn 0.923900 -0.382100 -0.021800
vn 0.923900 -0.382000 -0.021800
vn 0.923800 0.382200 0.021600
vn 0.923900 0.382000 0.021600
vn 0.382600 0.922500 0.051800
vn 0.382700 0.922400 0.051900
vn -0.382500 0.924000 0.003200
vn -0.382400 0.924000 0.003200
vn -0.923800 0.382900 0.001400
vn -0.923800 -0.382900 -0.001500
vn -0.382500 -0.924000 -0.003700
vn -0.382400 -0.924000 -0.003700
vn 0.382400 -0.924000 -0.003700
vn 0.382500 -0.924000 -0.003700
vn 0.923800 -0.382900 -0.001500
vn 0.923800 0.382900 0.001400
vn 0.382400 0.924000 0.003200
vn 0.382500 0.924000 0.003200
vn -0.382400 -0.917300 0.110800
vn -0.923800 -0.380200 0.046200
vn -0.923800 0.380200 -0.046400
vn -0.382400 0.917200 -0.112100
vn 0.382400 0.917200 -0.112100
vn 0.923800 0.380200 -0.046400
vn 0.923800 -0.380200 0.046200
vn 0.382400 -0.917300 0.110800
vn -0.319600 -0.014900 0.947400
vn -0.334900 0.090200 -0.937900
vn 0.334900 0.090200 -0.937900
vn 0.319600 -0.014900 0.947400
vn -0.358700 0.581800 0.730000
vn -0.362000 -0.560800 -0.744600
vn 0.362000 -0.560800 -0.744600
vn 0.358700 0.581800 0.730000
vn -0.365300 -0.476300 0.799800
vn -0.363600 0.488900 -0.792900
vn 0.363600 0.488900 -0.792900
vn 0.365300 -0.476300 0.799800
s 1
f 341/1/1 16/2/2 330/3/3
f 10/4/4 9/5/5 1/6/6
f 11/7/7 298/4/8 2/8/9
f 12/9/10 243/7/11 3/10/12
f 362/11/13 13/12/14 270/9/15
f 6/13/16 14/14/17 283/12/18
f 352/15/19 15/16/20 346/14/21
f 8/3/22 331/2/23 193/16/24
f 248/17/25 216/18/26 16/2/2
f 18/19/27 249/20/28 9/5/5
f 19/21/29 208/19/30 298/4/8
f 197/22/31 232/21/32 243/7/11
f 13/12/14 21/23/33 20/22/34
f 14/14/17 303/24/35 200/23/36
f 15/16/20 23/25/37 22/24/38
f 331/2/23 24/18/39 194/25/40
f 17/17/41 25/26/42 180/27/43
f 18/19/27 26/28/44 250/29/45
f 19/21/29 27/30/46 209/28/47
f 196/22/48 28/31/49 234/30/50
f 261/32/51 255/31/52 198/22/53
f 30/33/54 260/32/55 200/23/36
f 31/34/56 238/33/57 22/24/38
f 179/27/58 211/34/59 195/25/60
f 251/26/61 33/35/62 40/36/63
f 26/28/44 309/37/64 320/38/65
f 27/30/46 318/39/66 34/37/67
f 254/31/68 280/40/69 35/39/70
f 262/41/71 36/40/72 256/31/73
f 38/42/74 37/41/75 260/32/55
f 39/43/76 239/42/77 238/33/57
f 182/36/78 213/43/79 212/34/80
f 33/35/62 41/44/81 48/45/81
f 309/37/64 326/46/64 315/47/82
f 318/39/66 43/48/83 42/46/84
f 280/40/69 44/49/85 319/48/85
f 45/50/86 274/49/86 36/40/72
f 46/51/87 293/50/88 37/41/75
f 358/52/89 302/51/77 239/42/77
f 332/45/90 47/52/90 213/43/79
f 41/44/81 49/53/91 366/54/92
f 326/46/64 50/55/93 230/56/94
f 43/48/83 51/57/95 206/55/96
f 44/49/85 275/58/97 246/57/98
f 53/59/99 52/58/100 274/49/86
f 54/60/101 285/59/102 293/50/88
f 361/61/103 253/60/104 302/51/77
f 56/54/105 55/61/106 47/52/90
f 49/53/91 57/62/107 64/63/108
f 50/55/93 58/64/109 231/65/110
f 51/57/95 59/66/111 207/64/112
f 275/58/97 60/67/113 247/66/114
f 61/68/115 360/67/116 52/58/100
f 62/69/117 240/68/118 285/59/102
f 63/70/119 214/69/120 253/60/104
f 367/63/121 183/70/122 55/61/106
f 57/62/107 353/71/123 289/72/124
f 58/64/109 66/73/125 65/74/126
f 59/66/111 201/75/127 252/73/128
f 60/67/113 68/76/129 67/75/130
f 69/77/131 204/76/132 360/67/116
f 70/78/133 242/77/134 240/68/118
f 71/79/135 215/78/136 214/69/120
f 72/72/137 184/79/138 183/70/122
f 316/80/139 80/81/140 288/72/141
f 74/82/142 73/83/143 65/74/126
f 75/84/144 296/82/145 252/73/128
f 76/85/146 265/84/147 202/75/148
f 241/77/149 77/86/150 227/85/151
f 70/78/133 78/87/152 305/86/153
f 71/79/135 79/88/154 325/87/155
f 290/72/156 304/81/157 336/88/158
f 81/89/159 88/90/160 80/81/140
f 333/91/161 317/92/162 73/83/143
f 83/93/163 82/91/164 296/82/145
f 84/94/165 266/93/166 265/84/147
f 77/86/150 85/95/167 359/94/168
f 78/87/152 86/96/169 306/95/170
f 79/88/154 87/97/171 186/96/172
f 304/81/157 263/90/173 355/97/174
f 281/98/175 96/99/176 88/90/160
f 90/100/177 89/101/178 317/92/162
f 340/102/179 221/100/180 82/91/164
f 92/103/181 91/102/182 266/93/166
f 85/95/167 93/104/183 373/103/184
f 86/96/169 94/105/185 219/104/186
f 87/97/171 95/106/187 187/105/188
f 263/90/173 264/99/189 356/106/190
f 282/107/191 104/108/192 96/99/176
f 98/109/193 97/110/194 89/101/178
f 99/111/195 222/109/196 221/100/180
f 100/112/197 299/111/198 91/102/182
f 93/104/183 101/113/199 347/112/200
f 94/105/185 102/114/201 220/113/202
f 95/106/187 103/115/203 190/114/204
f 264/99/189 310/108/205 343/115/206
f 105/116/207 311/117/208 104/108/192
f 337/118/209 301/119/210 97/110/194
f 107/120/211 106/118/212 222/109/196
f 108/121/213 300/120/214 299/111/198
f 101/113/199 271/122/215 348/121/216
f 102/114/201 339/123/217 109/122/218
f 103/115/203 344/124/219 110/123/220
f 310/108/205 112/117/221 111/124/222
f 329/125/223 120/126/224 311/117/208
f 114/127/225 113/128/226 301/119/210
f 323/129/227 338/127/228 106/118/212
f 116/130/229 115/129/230 300/120/214
f 271/122/215 117/131/231 294/130/232
f 339/123/217 118/132/233 342/131/234
f 344/124/219 119/133/235 327/132/236
f 112/117/221 244/126/237 188/133/238
f 329/125/223 121/134/239 128/135/240
f 114/127/225 334/136/241 267/137/242
f 323/129/227 123/138/243 122/136/244
f 116/130/229 295/139/245 363/138/246
f 125/140/247 124/139/248 294/130/232
f 126/141/249 368/140/250 342/131/234
f 127/142/251 328/141/252 327/132/236
f 245/135/253 189/142/254 188/133/238
f 129/143/255 278/144/256 128/135/240
f 130/145/257 268/146/258 267/137/242
f 131/147/259 276/145/260 122/136/244
f 132/148/261 365/147/262 363/138/246
f 125/140/247 133/149/263 225/148/264
f 126/141/249 134/150/265 351/149/266
f 127/142/251 321/151/267 313/150/268
f 245/135/253 136/144/269 135/151/270
f 129/143/255 286/152/271 144/153/272
f 130/145/257 138/154/273 137/155/274
f 131/147/259 139/156/275 277/154/276
f 132/148/261 140/157/277 223/156/278
f 141/158/279 226/157/280 225/148/264
f 142/159/281 272/158/282 351/149/266
f 143/160/283 314/159/284 313/150/268
f 279/153/285 322/160/286 135/151/270
f 286/152/271 145/161/287 152/162/288
f 138/154/273 312/163/289 287/164/290
f 139/156/275 147/165/291 146/163/292
f 140/157/277 148/166/293 224/165/294
f 149/167/295 191/166/296 226/157/280
f 150/168/297 273/167/298 272/158/282
f 151/169/299 228/168/300 314/159/284
f 291/162/301 357/169/302 322/160/286
f 145/161/287 307/170/303 292/171/304
f 312/163/289 154/172/305 153/173/306
f 147/165/291 349/174/307 258/172/308
f 148/166/293 156/175/309 155/174/310
f 157/176/311 192/175/312 191/166/296
f 158/177/313 177/176/314 273/167/298
f 335/178/315 229/177/316 228/168/300
f 160/171/317 159/178/318 357/169/302
f 307/170/303 161/179/319 168/180/320
f 154/172/305 162/181/321 308/182/322
f 349/174/307 163/183/323 259/181/324
f 156/175/309 164/184/325 350/183/326
f 165/185/327 210/184/328 192/175/312
f 166/186/329 178/185/330 177/176/314
f 167/187/331 375/186/332 229/177/316
f 324/180/333 236/187/334 159/178/318
f 161/179/319 371/188/335 374/189/336
f 162/181/321 170/190/337 169/191/337
f 163/183/323 370/192/338 284/190/338
f 164/184/325 257/193/339 171/192/340
f 173/194/341 172/193/342 210/184/328
f 376/195/343 364/194/343 178/185/330
f 175/196/344 174/195/344 375/186/332
f 176/189/345 237/196/346 236/187/334
f 372/197/347 341/1/1 330/3/3
f 297/8/348 10/4/4 1/6/6
f 369/10/349 11/7/7 2/8/9
f 269/198/350 12/9/10 3/10/12
f 4/198/351 362/11/13 270/9/15
f 5/11/352 6/13/16 283/12/18
f 345/13/353 352/15/19 346/14/21
f 7/15/354 8/3/22 193/16/24
f 341/1/1 248/17/25 16/2/2
f 10/4/4 18/19/27 9/5/5
f 11/7/7 19/21/29 298/4/8
f 12/9/10 197/22/31 243/7/11
f 270/9/15 13/12/14 20/22/34
f 283/12/18 14/14/17 200/23/36
f 346/14/21 15/16/20 22/24/38
f 193/16/24 331/2/23 194/25/40
f 217/18/355 17/17/41 180/27/43
f 249/20/28 18/19/27 250/29/45
f 208/19/30 19/21/29 209/28/47
f 233/21/356 196/22/48 234/30/50
f 199/23/357 261/32/51 198/22/53
f 303/24/35 30/33/54 200/23/36
f 23/25/37 31/34/56 22/24/38
f 218/18/358 179/27/58 195/25/60
f 32/27/359 251/26/61 40/36/63
f 250/29/45 26/28/44 320/38/65
f 209/28/47 27/30/46 34/37/67
f 235/30/360 254/31/68 35/39/70
f 29/32/361 262/41/71 256/31/73
f 30/33/54 38/42/74 260/32/55
f 31/34/56 39/43/76 238/33/57
f 181/27/362 182/36/78 212/34/80
f 40/36/63 33/35/62 48/45/81
f 320/38/65 309/37/64 315/47/82
f 34/37/67 318/39/66 42/46/84
f 35/39/70 280/40/69 319/48/85
f 262/41/71 45/50/86 36/40/72
f 38/42/74 46/51/87 37/41/75
f 39/43/76 358/52/89 239/42/77
f 182/36/78 332/45/90 213/43/79
f 48/45/81 41/44/81 366/54/92
f 315/47/82 326/46/64 230/56/94
f 42/46/84 43/48/83 206/55/96
f 319/48/85 44/49/85 246/57/98
f 45/50/86 53/59/99 274/49/86
f 46/51/87 54/60/101 293/50/88
f 358/52/89 361/61/103 302/51/77
f 332/45/90 56/54/105 47/52/90
f 366/54/92 49/53/91 64/63/108
f 230/56/94 50/55/93 231/65/110
f 206/55/96 51/57/95 207/64/112
f 246/57/98 275/58/97 247/66/114
f 53/59/99 61/68/115 52/58/100
f 54/60/101 62/69/117 285/59/102
f 361/61/103 63/70/119 253/60/104
f 56/54/105 367/63/121 55/61/106
f 64/63/108 57/62/107 289/72/124
f 231/65/110 58/64/109 65/74/126
f 207/64/112 59/66/111 252/73/128
f 247/66/114 60/67/113 67/75/130
f 61/68/115 69/77/131 360/67/116
f 62/69/117 70/78/133 240/68/118
f 63/70/119 71/79/135 214/69/120
f 367/63/121 72/72/137 183/70/122
f 354/71/363 316/80/139 288/72/141
f 66/73/125 74/82/142 65/74/126
f 201/75/127 75/84/144 252/73/128
f 203/76/364 76/85/146 202/75/148
f 205/76/365 241/77/149 227/85/151
f 242/77/134 70/78/133 305/86/153
f 215/78/136 71/79/135 325/87/155
f 185/79/366 290/72/156 336/88/158
f 316/80/139 81/89/159 80/81/140
f 74/82/142 333/91/161 73/83/143
f 75/84/144 83/93/163 296/82/145
f 76/85/146 84/94/165 265/84/147
f 227/85/151 77/86/150 359/94/168
f 305/86/153 78/87/152 306/95/170
f 325/87/155 79/88/154 186/96/172
f 336/88/158 304/81/157 355/97/174
f 81/89/159 281/98/175 88/90/160
f 333/91/161 90/100/177 317/92/162
f 83/93/163 340/102/179 82/91/164
f 84/94/165 92/103/181 266/93/166
f 359/94/168 85/95/167 373/103/184
f 306/95/170 86/96/169 219/104/186
f 186/96/172 87/97/171 187/105/188
f 355/97/174 263/90/173 356/106/190
f 281/98/175 282/107/191 96/99/176
f 90/100/177 98/109/193 89/101/178
f 340/102/179 99/111/195 221/100/180
f 92/103/181 100/112/197 91/102/182
f 373/103/184 93/104/183 347/112/200
f 219/104/186 94/105/185 220/113/202
f 187/105/188 95/106/187 190/114/204
f 356/106/190 264/99/189 343/115/206
f 282/107/191 105/116/207 104/108/192
f 98/109/193 337/118/209 97/110/194
f 99/111/195 107/120/211 222/109/196
f 100/112/197 108/121/213 299/111/198
f 347/112/200 101/113/199 348/121/216
f 220/113/202 102/114/201 109/122/218
f 190/114/204 103/115/203 110/123/220
f 343/115/206 310/108/205 111/124/222
f 105/116/207 329/125/223 311/117/208
f 337/118/209 114/127/225 301/119/210
f 107/120/211 323/129/227 106/118/212
f 108/121/213 116/130/229 300/120/214
f 348/121/216 271/122/215 294/130/232
f 109/122/218 339/123/217 342/131/234
f 110/123/220 344/124/219 327/132/236
f 111/124/222 112/117/221 188/133/238
f 120/126/224 329/125/223 128/135/240
f 113/128/226 114/127/225 267/137/242
f 338/127/228 323/129/227 122/136/244
f 115/129/230 116/130/229 363/138/246
f 117/131/231 125/140/247 294/130/232
f 118/132/233 126/141/249 342/131/234
f 119/133/235 127/142/251 327/132/236
f 244/126/237 245/135/253 188/133/238
f 121/134/239 129/143/255 128/135/240
f 334/136/241 130/145/257 267/137/242
f 123/138/243 131/147/259 122/136/244
f 295/139/245 132/148/261 363/138/246
f 124/139/248 125/140/247 225/148/264
f 368/140/250 126/141/249 351/149/266
f 328/141/252 127/142/251 313/150/268
f 189/142/254 245/135/253 135/151/270
f 278/144/256 129/143/255 144/153/272
f 268/146/258 130/145/257 137/155/274
f 276/145/260 131/147/259 277/154/276
f 365/147/262 132/148/261 223/156/278
f 133/149/263 141/158/279 225/148/264
f 134/150/265 142/159/281 351/149/266
f 321/151/267 143/160/283 313/150/268
f 136/144/269 279/153/285 135/151/270
f 144/153/272 286/152/271 152/162/288
f 137/155/274 138/154/273 287/164/290
f 277/154/276 139/156/275 146/163/292
f 223/156/278 140/157/277 224/165/294
f 141/158/279 149/167/295 226/157/280
f 142/159/281 150/168/297 272/158/282
f 143/160/283 151/169/299 314/159/284
f 279/153/285 291/162/301 322/160/286
f 152/162/288 145/161/287 292/171/304
f 287/164/290 312/163/289 153/173/306
f 146/163/292 147/165/291 258/172/308
f 224/165/294 148/166/293 155/174/310
f 149/167/295 157/176/311 191/166/296
f 150/168/297 158/177/313 273/167/298
f 151/169/299 335/178/315 228/168/300
f 291/162/301 160/171/317 357/169/302
f 292/171/304 307/170/303 168/180/320
f 153/173/306 154/172/305 308/182/322
f 258/172/308 349/174/307 259/181/324
f 155/174/310 156/175/309 350/183/326
f 157/176/311 165/185/327 192/175/312
f 158/177/313 166/186/329 177/176/314
f 335/178/315 167/187/331 229/177/316
f 160/171/317 324/180/333 159/178/318
f 168/180/320 161/179/319 374/189/336
f 308/182/322 162/181/321 169/191/337
f 259/181/324 163/183/323 284/190/338
f 350/183/326 164/184/325 171/192/340
f 165/185/327 173/194/341 210/184/328
f 166/186/329 376/195/343 178/185/330
f 167/187/331 175/196/344 375/186/332
f 324/180/333 176/189/345 236/187/334
