# Blender v2.69 (sub 0) OBJ File: ''
# www.blender.org
mtllib teste.mtl
o Cube
v 2.084477 -2.084478 2.084478
v -2.084478 -2.084478 2.084478
v -2.084477 -2.084478 -2.084478
v 2.084478 -2.084478 -2.084477
v 2.084476 2.084478 2.084479
v -2.084479 2.084478 2.084476
v -2.084477 2.084478 -2.084478
v 2.084478 2.084478 -2.084477
vt 0.000000 0.000000
vt 1.000000 0.000000
vt 1.000000 1.000000
vt 0.000000 1.000000
vn 0.000000 -1.000000 0.000000
vn 0.000000 1.000000 0.000000
vn 0.000000 -0.000000 1.000000
vn -1.000000 -0.000000 -0.000000
vn 0.000000 -0.000000 -1.000000
vn 1.000000 0.000000 0.000000
vn -0.000001 0.000000 1.000000
usemtl Material
s off
f 1/1/1 2/2/1 3/3/1
f 5/1/2 8/2/2 6/4/2
f 1/1/3 5/2/3 2/4/3
f 2/1/4 6/2/4 3/4/4
f 3/1/5 7/2/5 8/3/5
f 5/1/6 1/2/6 8/4/6
f 4/4/1 1/1/1 3/3/1
f 5/2/7 6/3/7 2/4/7
f 1/2/6 4/3/6 8/4/6
f 8/2/2 7/3/2 6/4/2
f 4/4/5 3/1/5 8/3/5
f 6/2/4 7/3/4 3/4/4
